…
city_summary = homicide %>% 
  group_by(city_state) %>% 
  summarize(
    total_homicides = n(),
    unsolved_homicides = sum(disposition %in% c("Closed without arrest", "Open/No arrest"))
  )

print(city_summary)
```

    ## # A tibble: 51 × 3
    ##    city_state      total_homicides unsolved_homicides
    ##    <chr>                     <int>              <int>
    ##  1 Albuquerque, NM             378                146
    ##  2 Atlanta, GA                 973                373
    ##  3 Baltimore, MD              2827               1825
    ##  4 Baton Rouge, LA             424                196
    ##  5 Birmingham, AL              800                347
    ##  6 Boston, MA                  614                310
    ##  7 Buffalo, NY                 521                319
    ##  8 Charlotte, NC               687                206
    ##  9 Chicago, IL                5535               4073
    ## 10 Cincinnati, OH              694                309
    ## # ℹ 41 more rows
…
    ## Warning: There was 1 warning in `mutate()`.
    ## ℹ In argument: `tidy_results = map2(...)`.
    ## Caused by warning in `prop.test()`:
    ## ! Chi-squared approximation may be incorrect

``` r
print(city_proportions)
```

    ## # A tibble: 51 × 11
    ##    city_state    total_homicides unsolved_homicides estimate statistic   p.value
    ##    <chr>                   <int>              <int>    <dbl>     <dbl>     <dbl>
    ##  1 Albuquerque,…             378                146    0.386   19.1    1.23e-  5
    ##  2 Atlanta, GA               973                373    0.383   52.5    4.32e- 13
    ##  3 Baltimore, MD            2827               1825    0.646  239.     6.46e- 54
    ##  4 Baton Rouge,…             424                196    0.462    2.27   1.32e-  1
    ##  5 Birmingham, …             800                347    0.434   13.8    2.05e-  4
    ##  6 Boston, MA                614                310    0.505    0.0407 8.40e-  1
    ##  7 Buffalo, NY               521                319    0.612   25.8    3.73e-  7
    ##  8 Charlotte, NC             687                206    0.300  109.     1.41e- 25
    ##  9 Chicago, IL              5535               4073    0.736 1231.     1.28e-269
    ## 10 Cincinnati, …             694                309    0.445    8.11   4.41e-  3
    ## # ℹ 41 more rows
    ## # ℹ 5 more variables: parameter <int>, conf.low <dbl>, conf.high <dbl>,
    ## #   method <chr>, alternative <chr>
…
